Mumbai,http://localhost/mynewcar/car-rating/LX-343,1
Mumbai,http://localhost/mynewcar/car-rating/LX-344,2
Mumbai,http://localhost/mynewcar/car-rating/LX-345,3
Mumbai,http://localhost/mynewcar/car-rating/LX-346,4
